LAB/practica45/practica4/simulation/qsim/Practica4.msim.vcd
$comment
	File created using the following command:
		vcd file Practica4.msim.vcd -direction
$end
$date
	Fri Mar 24 15:41:41 2023
$end
$version
	ModelSim Version 10.5b
$end
$timescale
	1ps
$end

$scope module practica4_vhd_vec_tst $end
$var wire 1 ! AUX $end
$var wire 1 " CLK $end
$var wire 1 # edoPresente [2] $end
$var wire 1 $ edoPresente [1] $end
$var wire 1 % edoPresente [0] $end
$var wire 1 & liga [2] $end
$var wire 1 ' liga [1] $end
$var wire 1 ( liga [0] $end
$var wire 1 ) prueba [2] $end
$var wire 1 * prueba [1] $end
$var wire 1 + prueba [0] $end
$var wire 1 , RESET $end
$var wire 1 - Salida [4] $end
$var wire 1 . Salida [3] $end
$var wire 1 / Salida [2] $end
$var wire 1 0 Salida [1] $end
$var wire 1 1 Salida [0] $end
$var wire 1 2 W $end
$var wire 1 3 X $end
$var wire 1 4 Y $end
$var wire 1 5 Z $end

$scope module i1 $end
$var wire 1 6 gnd $end
$var wire 1 7 vcc $end
$var wire 1 8 unknown $end
$var wire 1 9 devoe $end
$var wire 1 : devclrn $end
$var wire 1 ; devpor $end
$var wire 1 < ww_devoe $end
$var wire 1 = ww_devclrn $end
$var wire 1 > ww_devpor $end
$var wire 1 ? ww_edoPresente [2] $end
$var wire 1 @ ww_edoPresente [1] $end
$var wire 1 A ww_edoPresente [0] $end
$var wire 1 B ww_CLK $end
$var wire 1 C ww_RESET $end
$var wire 1 D ww_AUX $end
$var wire 1 E ww_W $end
$var wire 1 F ww_X $end
$var wire 1 G ww_Y $end
$var wire 1 H ww_Z $end
$var wire 1 I ww_liga [2] $end
$var wire 1 J ww_liga [1] $end
$var wire 1 K ww_liga [0] $end
$var wire 1 L ww_prueba [2] $end
$var wire 1 M ww_prueba [1] $end
$var wire 1 N ww_prueba [0] $end
$var wire 1 O ww_Salida [4] $end
$var wire 1 P ww_Salida [3] $end
$var wire 1 Q ww_Salida [2] $end
$var wire 1 R ww_Salida [1] $end
$var wire 1 S ww_Salida [0] $end
$var wire 1 T \RESET~inputclkctrl_INCLK_bus\ [3] $end
$var wire 1 U \RESET~inputclkctrl_INCLK_bus\ [2] $end
$var wire 1 V \RESET~inputclkctrl_INCLK_bus\ [1] $end
$var wire 1 W \RESET~inputclkctrl_INCLK_bus\ [0] $end
$var wire 1 X \CLK~inputclkctrl_INCLK_bus\ [3] $end
$var wire 1 Y \CLK~inputclkctrl_INCLK_bus\ [2] $end
$var wire 1 Z \CLK~inputclkctrl_INCLK_bus\ [1] $end
$var wire 1 [ \CLK~inputclkctrl_INCLK_bus\ [0] $end
$var wire 1 \ \edoPresente[2]~output_o\ $end
$var wire 1 ] \edoPresente[1]~output_o\ $end
$var wire 1 ^ \edoPresente[0]~output_o\ $end
$var wire 1 _ \liga[2]~output_o\ $end
$var wire 1 ` \liga[1]~output_o\ $end
$var wire 1 a \liga[0]~output_o\ $end
$var wire 1 b \prueba[2]~output_o\ $end
$var wire 1 c \prueba[1]~output_o\ $end
$var wire 1 d \prueba[0]~output_o\ $end
$var wire 1 e \Salida[4]~output_o\ $end
$var wire 1 f \Salida[3]~output_o\ $end
$var wire 1 g \Salida[2]~output_o\ $end
$var wire 1 h \Salida[1]~output_o\ $end
$var wire 1 i \Salida[0]~output_o\ $end
$var wire 1 j \CLK~input_o\ $end
$var wire 1 k \CLK~inputclkctrl_outclk\ $end
$var wire 1 l \W~input_o\ $end
$var wire 1 m \inst3|Mux1~0_combout\ $end
$var wire 1 n \inst3|Mux16~0_combout\ $end
$var wire 1 o \AUX~input_o\ $end
$var wire 1 p \Y~input_o\ $end
$var wire 1 q \Z~input_o\ $end
$var wire 1 r \X~input_o\ $end
$var wire 1 s \inst|entrada~0_combout\ $end
$var wire 1 t \inst|entrada~1_combout\ $end
$var wire 1 u \inst|entrada~2_combout\ $end
$var wire 1 v \inst3|Mux4~0_combout\ $end
$var wire 1 w \RESET~input_o\ $end
$var wire 1 x \RESET~inputclkctrl_outclk\ $end
$var wire 1 y \inst1|liga[0]~1_combout\ $end
$var wire 1 z \inst1|liga[2]~0_combout\ $end
$var wire 1 { \inst3|Mux5~0_combout\ $end
$var wire 1 | \inst3|Mux9~0_combout\ $end
$var wire 1 } \inst2|salida[3]~0_combout\ $end
$var wire 1 ~ \inst3|Mux16~1_combout\ $end
$var wire 1 !! \inst2|salida[1]~1_combout\ $end
$var wire 1 "! \inst4|internal_value\ [2] $end
$var wire 1 #! \inst4|internal_value\ [1] $end
$var wire 1 $! \inst4|internal_value\ [0] $end
$var wire 1 %! \ALT_INV_RESET~inputclkctrl_outclk\ $end
$var wire 1 &! \inst3|ALT_INV_Mux9~0_combout\ $end
$upscope $end
$upscope $end
$enddefinitions $end
#0
$dumpvars
0!
0"
0,
02
03
04
05
06
17
x8
19
1:
1;
1<
1=
1>
0B
0C
0D
0E
0F
0G
0H
0\
0]
0^
0_
0`
1a
1b
0c
0d
1e
1f
0g
0h
0i
0j
0k
0l
0m
0n
0o
0p
0q
0r
0s
0t
0u
0v
0w
0x
1y
0z
1{
0|
1}
0~
0!!
1%!
1&!
0?
0@
0A
0I
0J
1K
1L
0M
0N
1O
1P
0Q
0R
0S
0"!
0#!
0$!
1X
1Y
1Z
0[
1T
1U
1V
0W
0#
0$
0%
0&
0'
1(
1)
0*
0+
1-
1.
0/
00
01
$end
#5000
1"
1B
1j
1[
1k
1$!
1m
1n
0y
1z
0{
1^
1A
0b
1_
0a
1d
1c
1i
1%
0L
1I
0K
1N
1M
1S
1+
1*
0)
0(
1&
11
#10000
0"
0B
0j
0[
0k
#15000
1"
1B
1j
1[
1k
0$!
1"!
0m
0n
1v
0z
1|
1!!
0&!
1\
0^
1?
0A
1h
0_
1`
0d
0c
0i
0%
1#
0e
1R
0I
1J
0N
0M
0S
0O
01
10
1'
0&
0+
0*
0-
#20000
0"
0B
0j
0[
0k
#25000
1"
1B
1j
1[
1k
1#!
0"!
1y
1{
0|
0!!
1&!
0\
1]
0?
1@
0h
1b
1a
1$
0#
1e
0R
1L
1K
1O
00
1)
1(
1-
#30000
0"
0B
0j
0[
0k
#35000
1"
1B
1j
1[
1k
1$!
1n
0y
1z
0{
1|
0}
1~
0&!
1^
1A
1g
0f
0b
1_
0a
1d
1%
0e
1Q
0P
0L
1I
0K
1N
0O
1/
0.
1+
0)
0(
1&
0-
#40000
0"
0B
0j
0[
0k
#45000
1"
1B
1j
1[
1k
0$!
1"!
1m
0n
0z
0|
1}
0~
1!!
1&!
1s
1\
0^
1?
0A
1h
0g
1f
0_
0d
1c
1i
0%
1#
1e
1R
0Q
1P
0I
0N
1M
1S
1O
11
10
0/
1.
0&
0+
1*
1-
#50000
0"
0B
0j
0[
0k
#55000
1"
1B
1j
1[
1k
0"!
0m
1y
1{
0!!
0s
0\
0?
0h
1b
1a
0c
0i
0#
0R
1L
1K
0M
0S
01
00
0*
1)
1(
#60000
0"
0B
0j
0[
0k
#65000
1"
1B
1j
1[
1k
1$!
1n
0y
1z
0{
1|
0}
1~
0&!
1^
1A
1g
0f
0b
1_
0a
1d
1%
0e
1Q
0P
0L
1I
0K
1N
0O
1/
0.
1+
0)
0(
1&
0-
#70000
0"
0B
0j
0[
0k
#75000
1"
1B
1j
1[
1k
0$!
1"!
1m
0n
0z
0|
1}
0~
1!!
1&!
1s
1\
0^
1?
0A
1h
0g
1f
0_
0d
1c
1i
0%
1#
1e
1R
0Q
1P
0I
0N
1M
1S
1O
11
10
0/
1.
0&
0+
1*
1-
#80000
0"
0B
0j
0[
0k
#85000
1"
1B
1j
1[
1k
0"!
0m
1y
1{
0!!
0s
0\
0?
0h
1b
1a
0c
0i
0#
0R
1L
1K
0M
0S
01
00
0*
1)
1(
#90000
0"
0B
0j
0[
0k
#95000
1"
1B
1j
1[
1k
1$!
1n
0y
1z
0{
1|
0}
1~
0&!
1^
1A
1g
0f
0b
1_
0a
1d
1%
0e
1Q
0P
0L
1I
0K
1N
0O
1/
0.
1+
0)
0(
1&
0-
#100000
0"
0B
0j
0[
0k
#105000
1"
1B
1j
1[
1k
0$!
1"!
1m
0n
0z
0|
1}
0~
1!!
1&!
1s
1\
0^
1?
0A
1h
0g
1f
0_
0d
1c
1i
0%
1#
1e
1R
0Q
1P
0I
0N
1M
1S
1O
11
10
0/
1.
0&
0+
1*
1-
#110000
0"
0B
0j
0[
0k
#115000
1"
1B
1j
1[
1k
0"!
0m
1y
1{
0!!
0s
0\
0?
0h
1b
1a
0c
0i
0#
0R
1L
1K
0M
0S
01
00
0*
1)
1(
#120000
0"
0B
0j
0[
0k
#125000
1"
1B
1j
1[
1k
1$!
1n
0y
1z
0{
1|
0}
1~
0&!
1^
1A
1g
0f
0b
1_
0a
1d
1%
0e
1Q
0P
0L
1I
0K
1N
0O
1/
0.
1+
0)
0(
1&
0-
#130000
0"
0B
0j
0[
0k
#135000
1"
1B
1j
1[
1k
0$!
1"!
1m
0n
0z
0|
1}
0~
1!!
1&!
1s
1\
0^
1?
0A
1h
0g
1f
0_
0d
1c
1i
0%
1#
1e
1R
0Q
1P
0I
0N
1M
1S
1O
11
10
0/
1.
0&
0+
1*
1-
#140000
0"
0B
0j
0[
0k
#145000
1"
1B
1j
1[
1k
0"!
0m
1y
1{
0!!
0s
0\
0?
0h
1b
1a
0c
0i
0#
0R
1L
1K
0M
0S
01
00
0*
1)
1(
#150000
0"
0B
0j
0[
0k
#155000
1"
1B
1j
1[
1k
1$!
1n
0y
1z
0{
1|
0}
1~
0&!
1^
1A
1g
0f
0b
1_
0a
1d
1%
0e
1Q
0P
0L
1I
0K
1N
0O
1/
0.
1+
0)
0(
1&
0-
#160000
0"
0B
0j
0[
0k
#165000
1"
1B
1j
1[
1k
0$!
1"!
1m
0n
0z
0|
1}
0~
1!!
1&!
1s
1\
0^
1?
0A
1h
0g
1f
0_
0d
1c
1i
0%
1#
1e
1R
0Q
1P
0I
0N
1M
1S
1O
11
10
0/
1.
0&
0+
1*
1-
#170000
0"
0B
0j
0[
0k
#175000
1"
1B
1j
1[
1k
0"!
0m
1y
1{
0!!
0s
0\
0?
0h
1b
1a
0c
0i
0#
0R
1L
1K
0M
0S
01
00
0*
1)
1(
#180000
0"
0B
0j
0[
0k
#185000
1"
1B
1j
1[
1k
1$!
1n
0y
1z
0{
1|
0}
1~
0&!
1^
1A
1g
0f
0b
1_
0a
1d
1%
0e
1Q
0P
0L
1I
0K
1N
0O
1/
0.
1+
0)
0(
1&
0-
#190000
0"
0B
0j
0[
0k
#195000
1"
1B
1j
1[
1k
0$!
1"!
1m
0n
0z
0|
1}
0~
1!!
1&!
1s
1\
0^
1?
0A
1h
0g
1f
0_
0d
1c
1i
0%
1#
1e
1R
0Q
1P
0I
0N
1M
1S
1O
11
10
0/
1.
0&
0+
1*
1-
#200000
0"
0B
0j
0[
0k
#205000
1"
1B
1j
1[
1k
0"!
0m
1y
1{
0!!
0s
0\
0?
0h
1b
1a
0c
0i
0#
0R
1L
1K
0M
0S
01
00
0*
1)
1(
#210000
0"
0B
0j
0[
0k
#215000
1"
1B
1j
1[
1k
1$!
1n
0y
1z
0{
1|
0}
1~
0&!
1^
1A
1g
0f
0b
1_
0a
1d
1%
0e
1Q
0P
0L
1I
0K
1N
0O
1/
0.
1+
0)
0(
1&
0-
#220000
0"
0B
0j
0[
0k
#225000
1"
1B
1j
1[
1k
0$!
1"!
1m
0n
0z
0|
1}
0~
1!!
1&!
1s
1\
0^
1?
0A
1h
0g
1f
0_
0d
1c
1i
0%
1#
1e
1R
0Q
1P
0I
0N
1M
1S
1O
11
10
0/
1.
0&
0+
1*
1-
#230000
0"
0B
0j
0[
0k
#235000
1"
1B
1j
1[
1k
0"!
0m
1y
1{
0!!
0s
0\
0?
0h
1b
1a
0c
0i
0#
0R
1L
1K
0M
0S
01
00
0*
1)
1(
#240000
0"
0B
0j
0[
0k
#245000
1"
1B
1j
1[
1k
1$!
1n
0y
1z
0{
1|
0}
1~
0&!
1^
1A
1g
0f
0b
1_
0a
1d
1%
0e
1Q
0P
0L
1I
0K
1N
0O
1/
0.
1+
0)
0(
1&
0-
#250000
0"
0B
0j
0[
0k
#255000
1"
1B
1j
1[
1k
0$!
1"!
1m
0n
0z
0|
1}
0~
1!!
1&!
1s
1\
0^
1?
0A
1h
0g
1f
0_
0d
1c
1i
0%
1#
1e
1R
0Q
1P
0I
0N
1M
1S
1O
11
10
0/
1.
0&
0+
1*
1-
#260000
0"
0B
0j
0[
0k
#265000
1"
1B
1j
1[
1k
0"!
0m
1y
1{
0!!
0s
0\
0?
0h
1b
1a
0c
0i
0#
0R
1L
1K
0M
0S
01
00
0*
1)
1(
#270000
0"
0B
0j
0[
0k
#275000
1"
1B
1j
1[
1k
1$!
1n
0y
1z
0{
1|
0}
1~
0&!
1^
1A
1g
0f
0b
1_
0a
1d
1%
0e
1Q
0P
0L
1I
0K
1N
0O
1/
0.
1+
0)
0(
1&
0-
#280000
0"
0B
0j
0[
0k
#285000
1"
1B
1j
1[
1k
0$!
1"!
1m
0n
0z
0|
1}
0~
1!!
1&!
1s
1\
0^
1?
0A
1h
0g
1f
0_
0d
1c
1i
0%
1#
1e
1R
0Q
1P
0I
0N
1M
1S
1O
11
10
0/
1.
0&
0+
1*
1-
#290000
0"
0B
0j
0[
0k
#295000
1"
1B
1j
1[
1k
0"!
0m
1y
1{
0!!
0s
0\
0?
0h
1b
1a
0c
0i
0#
0R
1L
1K
0M
0S
01
00
0*
1)
1(
#300000
0"
0B
0j
0[
0k
#305000
1"
1B
1j
1[
1k
1$!
1n
0y
1z
0{
1|
0}
1~
0&!
1^
1A
1g
0f
0b
1_
0a
1d
1%
0e
1Q
0P
0L
1I
0K
1N
0O
1/
0.
1+
0)
0(
1&
0-
#310000
0"
0B
0j
0[
0k
#315000
1"
1B
1j
1[
1k
0$!
1"!
1m
0n
0z
0|
1}
0~
1!!
1&!
1s
1\
0^
1?
0A
1h
0g
1f
0_
0d
1c
1i
0%
1#
1e
1R
0Q
1P
0I
0N
1M
1S
1O
11
10
0/
1.
0&
0+
1*
1-
#320000
0"
0B
0j
0[
0k
#325000
1"
1B
1j
1[
1k
0"!
0m
1y
1{
0!!
0s
0\
0?
0h
1b
1a
0c
0i
0#
0R
1L
1K
0M
0S
01
00
0*
1)
1(
#330000
0"
0B
0j
0[
0k
#335000
1"
1B
1j
1[
1k
1$!
1n
0y
1z
0{
1|
0}
1~
0&!
1^
1A
1g
0f
0b
1_
0a
1d
1%
0e
1Q
0P
0L
1I
0K
1N
0O
1/
0.
1+
0)
0(
1&
0-
#340000
0"
0B
0j
0[
0k
#345000
1"
1B
1j
1[
1k
0$!
1"!
1m
0n
0z
0|
1}
0~
1!!
1&!
1s
1\
0^
1?
0A
1h
0g
1f
0_
0d
1c
1i
0%
1#
1e
1R
0Q
1P
0I
0N
1M
1S
1O
11
10
0/
1.
0&
0+
1*
1-
#350000
0"
0B
0j
0[
0k
#355000
1"
1B
1j
1[
1k
0"!
0m
1y
1{
0!!
0s
0\
0?
0h
1b
1a
0c
0i
0#
0R
1L
1K
0M
0S
01
00
0*
1)
1(
#360000
0"
0B
0j
0[
0k
#365000
1"
1B
1j
1[
1k
1$!
1n
0y
1z
0{
1|
0}
1~
0&!
1^
1A
1g
0f
0b
1_
0a
1d
1%
0e
1Q
0P
0L
1I
0K
1N
0O
1/
0.
1+
0)
0(
1&
0-
#370000
0"
0B
0j
0[
0k
#375000
1"
1B
1j
1[
1k
0$!
1"!
1m
0n
0z
0|
1}
0~
1!!
1&!
1s
1\
0^
1?
0A
1h
0g
1f
0_
0d
1c
1i
0%
1#
1e
1R
0Q
1P
0I
0N
1M
1S
1O
11
10
0/
1.
0&
0+
1*
1-
#380000
0"
0B
0j
0[
0k
#385000
1"
1B
1j
1[
1k
0"!
0m
1y
1{
0!!
0s
0\
0?
0h
1b
1a
0c
0i
0#
0R
1L
1K
0M
0S
01
00
0*
1)
1(
#390000
0"
0B
0j
0[
0k
#395000
1"
1B
1j
1[
1k
1$!
1n
0y
1z
0{
1|
0}
1~
0&!
1^
1A
1g
0f
0b
1_
0a
1d
1%
0e
1Q
0P
0L
1I
0K
1N
0O
1/
0.
1+
0)
0(
1&
0-
#400000
0"
0B
0j
0[
0k
#405000
1"
1B
1j
1[
1k
0$!
1"!
1m
0n
0z
0|
1}
0~
1!!
1&!
1s
1\
0^
1?
0A
1h
0g
1f
0_
0d
1c
1i
0%
1#
1e
1R
0Q
1P
0I
0N
1M
1S
1O
11
10
0/
1.
0&
0+
1*
1-
#410000
0"
0B
0j
0[
0k
#415000
1"
1B
1j
1[
1k
0"!
0m
1y
1{
0!!
0s
0\
0?
0h
1b
1a
0c
0i
0#
0R
1L
1K
0M
0S
01
00
0*
1)
1(
#420000
0"
0B
0j
0[
0k
#425000
1"
1B
1j
1[
1k
1$!
1n
0y
1z
0{
1|
0}
1~
0&!
1^
1A
1g
0f
0b
1_
0a
1d
1%
0e
1Q
0P
0L
1I
0K
1N
0O
1/
0.
1+
0)
0(
1&
0-
#430000
0"
0B
0j
0[
0k
#435000
1"
1B
1j
1[
1k
0$!
1"!
1m
0n
0z
0|
1}
0~
1!!
1&!
1s
1\
0^
1?
0A
1h
0g
1f
0_
0d
1c
1i
0%
1#
1e
1R
0Q
1P
0I
0N
1M
1S
1O
11
10
0/
1.
0&
0+
1*
1-
#440000
0"
0B
0j
0[
0k
#445000
1"
1B
1j
1[
1k
0"!
0m
1y
1{
0!!
0s
0\
0?
0h
1b
1a
0c
0i
0#
0R
1L
1K
0M
0S
01
00
0*
1)
1(
#450000
0"
0B
0j
0[
0k
#455000
1"
1B
1j
1[
1k
1$!
1n
0y
1z
0{
1|
0}
1~
0&!
1^
1A
1g
0f
0b
1_
0a
1d
1%
0e
1Q
0P
0L
1I
0K
1N
0O
1/
0.
1+
0)
0(
1&
0-
#460000
0"
0B
0j
0[
0k
#465000
1"
1B
1j
1[
1k
0$!
1"!
1m
0n
0z
0|
1}
0~
1!!
1&!
1s
1\
0^
1?
0A
1h
0g
1f
0_
0d
1c
1i
0%
1#
1e
1R
0Q
1P
0I
0N
1M
1S
1O
11
10
0/
1.
0&
0+
1*
1-
#470000
0"
0B
0j
0[
0k
#475000
1"
1B
1j
1[
1k
0"!
0m
1y
1{
0!!
0s
0\
0?
0h
1b
1a
0c
0i
0#
0R
1L
1K
0M
0S
01
00
0*
1)
1(
#480000
0"
0B
0j
0[
0k
#485000
1"
1B
1j
1[
1k
1$!
1n
0y
1z
0{
1|
0}
1~
0&!
1^
1A
1g
0f
0b
1_
0a
1d
1%
0e
1Q
0P
0L
1I
0K
1N
0O
1/
0.
1+
0)
0(
1&
0-
#490000
0"
0B
0j
0[
0k
#495000
1"
1B
1j
1[
1k
0$!
1"!
1m
0n
0z
0|
1}
0~
1!!
1&!
1s
1\
0^
1?
0A
1h
0g
1f
0_
0d
1c
1i
0%
1#
1e
1R
0Q
1P
0I
0N
1M
1S
1O
11
10
0/
1.
0&
0+
1*
1-
#500000
0"
0B
0j
0[
0k
#505000
1"
1B
1j
1[
1k
0"!
0m
1y
1{
0!!
0s
0\
0?
0h
1b
1a
0c
0i
0#
0R
1L
1K
0M
0S
01
00
0*
1)
1(
#510000
0"
0B
0j
0[
0k
#515000
1"
1B
1j
1[
1k
1$!
1n
0y
1z
0{
1|
0}
1~
0&!
1^
1A
1g
0f
0b
1_
0a
1d
1%
0e
1Q
0P
0L
1I
0K
1N
0O
1/
0.
1+
0)
0(
1&
0-
#520000
0"
0B
0j
0[
0k
#525000
1"
1B
1j
1[
1k
0$!
1"!
1m
0n
0z
0|
1}
0~
1!!
1&!
1s
1\
0^
1?
0A
1h
0g
1f
0_
0d
1c
1i
0%
1#
1e
1R
0Q
1P
0I
0N
1M
1S
1O
11
10
0/
1.
0&
0+
1*
1-
#530000
0"
0B
0j
0[
0k
#535000
1"
1B
1j
1[
1k
0"!
0m
1y
1{
0!!
0s
0\
0?
0h
1b
1a
0c
0i
0#
0R
1L
1K
0M
0S
01
00
0*
1)
1(
#540000
0"
0B
0j
0[
0k
#545000
1"
1B
1j
1[
1k
1$!
1n
0y
1z
0{
1|
0}
1~
0&!
1^
1A
1g
0f
0b
1_
0a
1d
1%
0e
1Q
0P
0L
1I
0K
1N
0O
1/
0.
1+
0)
0(
1&
0-
#550000
0"
0B
0j
0[
0k
#555000
1"
1B
1j
1[
1k
0$!
1"!
1m
0n
0z
0|
1}
0~
1!!
1&!
1s
1\
0^
1?
0A
1h
0g
1f
0_
0d
1c
1i
0%
1#
1e
1R
0Q
1P
0I
0N
1M
1S
1O
11
10
0/
1.
0&
0+
1*
1-
#560000
0"
0B
0j
0[
0k
#565000
1"
1B
1j
1[
1k
0"!
0m
1y
1{
0!!
0s
0\
0?
0h
1b
1a
0c
0i
0#
0R
1L
1K
0M
0S
01
00
0*
1)
1(
#570000
0"
0B
0j
0[
0k
#575000
1"
1B
1j
1[
1k
1$!
1n
0y
1z
0{
1|
0}
1~
0&!
1^
1A
1g
0f
0b
1_
0a
1d
1%
0e
1Q
0P
0L
1I
0K
1N
0O
1/
0.
1+
0)
0(
1&
0-
#580000
0"
0B
0j
0[
0k
#585000
1"
1B
1j
1[
1k
0$!
1"!
1m
0n
0z
0|
1}
0~
1!!
1&!
1s
1\
0^
1?
0A
1h
0g
1f
0_
0d
1c
1i
0%
1#
1e
1R
0Q
1P
0I
0N
1M
1S
1O
11
10
0/
1.
0&
0+
1*
1-
#590000
0"
0B
0j
0[
0k
#595000
1"
1B
1j
1[
1k
0"!
0m
1y
1{
0!!
0s
0\
0?
0h
1b
1a
0c
0i
0#
0R
1L
1K
0M
0S
01
00
0*
1)
1(
#600000
0"
0B
0j
0[
0k
#605000
1"
1B
1j
1[
1k
1$!
1n
0y
1z
0{
1|
0}
1~
0&!
1^
1A
1g
0f
0b
1_
0a
1d
1%
0e
1Q
0P
0L
1I
0K
1N
0O
1/
0.
1+
0)
0(
1&
0-
#610000
0"
0B
0j
0[
0k
#615000
1"
1B
1j
1[
1k
0$!
1"!
1m
0n
0z
0|
1}
0~
1!!
1&!
1s
1\
0^
1?
0A
1h
0g
1f
0_
0d
1c
1i
0%
1#
1e
1R
0Q
1P
0I
0N
1M
1S
1O
11
10
0/
1.
0&
0+
1*
1-
#620000
0"
0B
0j
0[
0k
#625000
1"
1B
1j
1[
1k
0"!
0m
1y
1{
0!!
0s
0\
0?
0h
1b
1a
0c
0i
0#
0R
1L
1K
0M
0S
01
00
0*
1)
1(
#630000
0"
0B
0j
0[
0k
#635000
1"
1B
1j
1[
1k
1$!
1n
0y
1z
0{
1|
0}
1~
0&!
1^
1A
1g
0f
0b
1_
0a
1d
1%
0e
1Q
0P
0L
1I
0K
1N
0O
1/
0.
1+
0)
0(
1&
0-
#640000
0"
0B
0j
0[
0k
#645000
1"
1B
1j
1[
1k
0$!
1"!
1m
0n
0z
0|
1}
0~
1!!
1&!
1s
1\
0^
1?
0A
1h
0g
1f
0_
0d
1c
1i
0%
1#
1e
1R
0Q
1P
0I
0N
1M
1S
1O
11
10
0/
1.
0&
0+
1*
1-
#650000
0"
0B
0j
0[
0k
#655000
1"
1B
1j
1[
1k
0"!
0m
1y
1{
0!!
0s
0\
0?
0h
1b
1a
0c
0i
0#
0R
1L
1K
0M
0S
01
00
0*
1)
1(
#660000
0"
0B
0j
0[
0k
#665000
1"
1B
1j
1[
1k
1$!
1n
0y
1z
0{
1|
0}
1~
0&!
1^
1A
1g
0f
0b
1_
0a
1d
1%
0e
1Q
0P
0L
1I
0K
1N
0O
1/
0.
1+
0)
0(
1&
0-
#670000
0"
0B
0j
0[
0k
#675000
1"
1B
1j
1[
1k
0$!
1"!
1m
0n
0z
0|
1}
0~
1!!
1&!
1s
1\
0^
1?
0A
1h
0g
1f
0_
0d
1c
1i
0%
1#
1e
1R
0Q
1P
0I
0N
1M
1S
1O
11
10
0/
1.
0&
0+
1*
1-
#680000
0"
0B
0j
0[
0k
#685000
1"
1B
1j
1[
1k
0"!
0m
1y
1{
0!!
0s
0\
0?
0h
1b
1a
0c
0i
0#
0R
1L
1K
0M
0S
01
00
0*
1)
1(
#690000
0"
0B
0j
0[
0k
#695000
1"
1B
1j
1[
1k
1$!
1n
0y
1z
0{
1|
0}
1~
0&!
1^
1A
1g
0f
0b
1_
0a
1d
1%
0e
1Q
0P
0L
1I
0K
1N
0O
1/
0.
1+
0)
0(
1&
0-
#700000
0"
0B
0j
0[
0k
#705000
1"
1B
1j
1[
1k
0$!
1"!
1m
0n
0z
0|
1}
0~
1!!
1&!
1s
1\
0^
1?
0A
1h
0g
1f
0_
0d
1c
1i
0%
1#
1e
1R
0Q
1P
0I
0N
1M
1S
1O
11
10
0/
1.
0&
0+
1*
1-
#710000
0"
0B
0j
0[
0k
#715000
1"
1B
1j
1[
1k
0"!
0m
1y
1{
0!!
0s
0\
0?
0h
1b
1a
0c
0i
0#
0R
1L
1K
0M
0S
01
00
0*
1)
1(
#720000
0"
0B
0j
0[
0k
#725000
1"
1B
1j
1[
1k
1$!
1n
0y
1z
0{
1|
0}
1~
0&!
1^
1A
1g
0f
0b
1_
0a
1d
1%
0e
1Q
0P
0L
1I
0K
1N
0O
1/
0.
1+
0)
0(
1&
0-
#730000
0"
0B
0j
0[
0k
#735000
1"
1B
1j
1[
1k
0$!
1"!
1m
0n
0z
0|
1}
0~
1!!
1&!
1s
1\
0^
1?
0A
1h
0g
1f
0_
0d
1c
1i
0%
1#
1e
1R
0Q
1P
0I
0N
1M
1S
1O
11
10
0/
1.
0&
0+
1*
1-
#740000
0"
0B
0j
0[
0k
#745000
1"
1B
1j
1[
1k
0"!
0m
1y
1{
0!!
0s
0\
0?
0h
1b
1a
0c
0i
0#
0R
1L
1K
0M
0S
01
00
0*
1)
1(
#750000
0"
0B
0j
0[
0k
#755000
1"
1B
1j
1[
1k
1$!
1n
0y
1z
0{
1|
0}
1~
0&!
1^
1A
1g
0f
0b
1_
0a
1d
1%
0e
1Q
0P
0L
1I
0K
1N
0O
1/
0.
1+
0)
0(
1&
0-
#760000
0"
0B
0j
0[
0k
#765000
1"
1B
1j
1[
1k
0$!
1"!
1m
0n
0z
0|
1}
0~
1!!
1&!
1s
1\
0^
1?
0A
1h
0g
1f
0_
0d
1c
1i
0%
1#
1e
1R
0Q
1P
0I
0N
1M
1S
1O
11
10
0/
1.
0&
0+
1*
1-
#770000
0"
0B
0j
0[
0k
#775000
1"
1B
1j
1[
1k
0"!
0m
1y
1{
0!!
0s
0\
0?
0h
1b
1a
0c
0i
0#
0R
1L
1K
0M
0S
01
00
0*
1)
1(
#780000
0"
0B
0j
0[
0k
#785000
1"
1B
1j
1[
1k
1$!
1n
0y
1z
0{
1|
0}
1~
0&!
1^
1A
1g
0f
0b
1_
0a
1d
1%
0e
1Q
0P
0L
1I
0K
1N
0O
1/
0.
1+
0)
0(
1&
0-
#790000
0"
0B
0j
0[
0k
#795000
1"
1B
1j
1[
1k
0$!
1"!
1m
0n
0z
0|
1}
0~
1!!
1&!
1s
1\
0^
1?
0A
1h
0g
1f
0_
0d
1c
1i
0%
1#
1e
1R
0Q
1P
0I
0N
1M
1S
1O
11
10
0/
1.
0&
0+
1*
1-
#800000
0"
0B
0j
0[
0k
#805000
1"
1B
1j
1[
1k
0"!
0m
1y
1{
0!!
0s
0\
0?
0h
1b
1a
0c
0i
0#
0R
1L
1K
0M
0S
01
00
0*
1)
1(
#810000
0"
0B
0j
0[
0k
#815000
1"
1B
1j
1[
1k
1$!
1n
0y
1z
0{
1|
0}
1~
0&!
1^
1A
1g
0f
0b
1_
0a
1d
1%
0e
1Q
0P
0L
1I
0K
1N
0O
1/
0.
1+
0)
0(
1&
0-
#820000
0"
0B
0j
0[
0k
#825000
1"
1B
1j
1[
1k
0$!
1"!
1m
0n
0z
0|
1}
0~
1!!
1&!
1s
1\
0^
1?
0A
1h
0g
1f
0_
0d
1c
1i
0%
1#
1e
1R
0Q
1P
0I
0N
1M
1S
1O
11
10
0/
1.
0&
0+
1*
1-
#830000
0"
0B
0j
0[
0k
#835000
1"
1B
1j
1[
1k
0"!
0m
1y
1{
0!!
0s
0\
0?
0h
1b
1a
0c
0i
0#
0R
1L
1K
0M
0S
01
00
0*
1)
1(
#840000
0"
0B
0j
0[
0k
#845000
1"
1B
1j
1[
1k
1$!
1n
0y
1z
0{
1|
0}
1~
0&!
1^
1A
1g
0f
0b
1_
0a
1d
1%
0e
1Q
0P
0L
1I
0K
1N
0O
1/
0.
1+
0)
0(
1&
0-
#850000
0"
0B
0j
0[
0k
#855000
1"
1B
1j
1[
1k
0$!
1"!
1m
0n
0z
0|
1}
0~
1!!
1&!
1s
1\
0^
1?
0A
1h
0g
1f
0_
0d
1c
1i
0%
1#
1e
1R
0Q
1P
0I
0N
1M
1S
1O
11
10
0/
1.
0&
0+
1*
1-
#860000
0"
0B
0j
0[
0k
#865000
1"
1B
1j
1[
1k
0"!
0m
1y
1{
0!!
0s
0\
0?
0h
1b
1a
0c
0i
0#
0R
1L
1K
0M
0S
01
00
0*
1)
1(
#870000
0"
0B
0j
0[
0k
#875000
1"
1B
1j
1[
1k
1$!
1n
0y
1z
0{
1|
0}
1~
0&!
1^
1A
1g
0f
0b
1_
0a
1d
1%
0e
1Q
0P
0L
1I
0K
1N
0O
1/
0.
1+
0)
0(
1&
0-
#880000
0"
0B
0j
0[
0k
#885000
1"
1B
1j
1[
1k
0$!
1"!
1m
0n
0z
0|
1}
0~
1!!
1&!
1s
1\
0^
1?
0A
1h
0g
1f
0_
0d
1c
1i
0%
1#
1e
1R
0Q
1P
0I
0N
1M
1S
1O
11
10
0/
1.
0&
0+
1*
1-
#890000
0"
0B
0j
0[
0k
